{
  "name": "unary_sub",
  "alphabet": [ "A", "B", ".", "=" ],
  "blank" : ".",
  "states" : [ "scanone", "scanA", "scanAEnd", "scanB", "scanBEnd", "erase_true", "true", "false", "erase_false", "resethead", "HALT" ],
  "initial" : "scanone",
  "finals" : [ "HALT" ],
  "transitions" : {
    "scanone": [
      { "read" : ".", "to_state": "erase_true", "write": ".", "action": "LEFT"},
      { "read" : "=", "to_state": "erase_true", "write": "=", "action": "LEFT"},
      { "read" : "A", "to_state": "scanA", "write": ".", "action": "RIGHT"},
      { "read" : "B", "to_state": "scanB", "write": ".", "action": "RIGHT"}
    ],
    "scanB": [
      { "read" : "A", "to_state": "scanB", "write": "A", "action": "RIGHT"},
      { "read" : "B", "to_state": "scanB", "write": "B", "action": "RIGHT"},
      { "read" : "=", "to_state": "scanBEnd" , "write": ".", "action": "LEFT" }
    ],
    "scanBEnd": [
      { "read" : "A", "to_state": "erase_false", "write": "=", "action": "LEFT"},
      { "read" : "B", "to_state": "resethead", "write": "=", "action": "LEFT"},
      { "read" : ".", "to_state": "erase_true", "write": "=", "action": "LEFT"}
    ],
    "scanA": [
      { "read" : "A", "to_state": "scanA", "write": "A", "action": "RIGHT"},
      { "read" : "B", "to_state": "scanA", "write": "B", "action": "RIGHT"},
      { "read" : "=", "to_state": "scanAEnd" , "write": ".", "action": "LEFT" }
    ],
    "scanAEnd": [
      { "read" : "A", "to_state": "resethead", "write": "=", "action": "LEFT"},
      { "read" : "B", "to_state": "erase_false", "write": "=", "action": "LEFT"},
      { "read" : ".", "to_state": "erase_true", "write": "=", "action": "LEFT"}
    ],
    "erase_true": [
      { "read" : "A", "to_state": "erase_true", "write": ".", "action": "RIGHT"},
      { "read" : "B", "to_state": "erase_true", "write": ".", "action": "RIGHT"},
      { "read" : "=", "to_state": "true" , "write": "=", "action": "RIGHT"},
      { "read" : ".", "to_state": "erase_true" , "write": ".", "action": "RIGHT"}
    ],
    "true": [
      { "read" : "A", "to_state": "HALT", "write": "y", "action": "RIGHT"},
      { "read" : "B", "to_state": "HALT", "write": "y", "action": "RIGHT"},
      { "read" : "=", "to_state": "HALT" , "write": "y", "action": "RIGHT"},
      { "read" : ".", "to_state": "HALT" , "write": "y", "action": "RIGHT"}
    ],
    "erase_false": [
      { "read" : "A", "to_state": "erase_false", "write": ".", "action": "RIGHT"},
      { "read" : "B", "to_state": "erase_false", "write": ".", "action": "RIGHT"},
      { "read" : "=", "to_state": "false" , "write": "=", "action": "RIGHT"},
      { "read" : ".", "to_state": "erase_false" , "write": ".", "action": "RIGHT"}
    ],
    "false": [
      { "read" : "A", "to_state": "HALT", "write": "n", "action": "RIGHT"},
      { "read" : "B", "to_state": "HALT", "write": "n", "action": "RIGHT"},
      { "read" : "=", "to_state": "HALT" , "write": "n", "action": "RIGHT"},
      { "read" : ".", "to_state": "HALT" , "write": "n", "action": "RIGHT"}
    ],
    "resethead": [
      { "read" : "A", "to_state": "resethead", "write": "A", "action": "LEFT"},
      { "read" : "B", "to_state": "resethead", "write": "B", "action": "LEFT"},
      { "read" : ".", "to_state": "scanone", "write": ".", "action": "RIGHT"}
    ]
  }
}
