{
  "name": "unary_sub",
  "alphabet": [ ".", "0", "=" ],
  "blank" : ".",
  "states" : [ "first_pair", "second_pair", "true", "false", "HALT" ],
  "initial" : "first_pair",
  "finals" : [ "HALT" ],
  "transitions" : {
    "first_pair": [
      { "read" : "0", "to_state": "second_pair", "write": "0", "action": "RIGHT"},
      { "read" : "=", "to_state": "true", "write": "=", "action": "RIGHT"}
    ],
    "second_pair": [
      { "read" : "0", "to_state": "first_pair", "write": "0", "action": "RIGHT"},
      { "read" : "=", "to_state": "false", "write": "=", "action": "RIGHT"}
    ],
    "true": [
      { "read" : "0", "to_state": "HALT", "write": "y", "action": "RIGHT"},
      { "read" : "=", "to_state": "HALT" , "write": "y", "action": "RIGHT"},
      { "read" : ".", "to_state": "HALT" , "write": "y", "action": "RIGHT"}
    ],
    "false": [
      { "read" : "0", "to_state": "HALT", "write": "n", "action": "RIGHT"},
      { "read" : "=", "to_state": "HALT" , "write": "n", "action": "RIGHT"},
      { "read" : ".", "to_state": "HALT" , "write": "n", "action": "RIGHT"}
    ]
  }
}
